{"data":{"products":[{"additionalInformation":{"eligibilityUri":"https://www.anz.com.au/personal/bank-accounts/term-deposits/anz-term-deposit/?CID=af:obank:sv","feesAndPricingUri":"https://www.anz.com.au/personal/bank-accounts/term-deposits/anz-term-deposit/?CID=af:obank:sv","overviewUri":"https://www.anz.com.au/personal/bank-accounts/term-deposits/anz-term-deposit/?CID=af:obank:sv","termsUri":"http://www.anz.com/auxiliary/rates-fees-terms/fees-terms-conditions/?CID=af:obank:sv#FTPDS"},"applicationUri":"https://applyonline.anz.com/dsr-dep/deposits/apply?apptype=TD&sourcecode_1=QRI&CID=af:obank:sv#!start","brand":"ANZ","description":"Enjoy the security of a fixed rate of interest over the investment term of your choice.","effectiveFrom":"2019-08-20T14:10:00Z","isTailored":false,"lastUpdated":"2019-08-21T07:07:14.320976Z","name":"ANZ Term Deposit","productCategory":"TERM_DEPOSITS","productId":"ccc4637d-7686-9a23-7f7b-fab7003b968e"},{"additionalInformation":{"eligibilityUri":"https://www.anz.com.au/personal/bank-accounts/savings-accounts/progress-saver/?CID=af:obank:sv","feesAndPricingUri":"https://www.anz.com.au/personal/bank-accounts/savings-accounts/progress-saver/?CID=af:obank:sv","overviewUri":"https://www.anz.com.au/personal/bank-accounts/savings-accounts/progress-saver/?CID=af:obank:sv","termsUri":"http://www.anz.com/auxiliary/rates-fees-terms/fees-terms-conditions/?CID=af:obank:sv#FTPDS"},"applicationUri":"https://applyonline.anz.com/dsr-dep/deposits/apply?apptype=PS&sourcecode_1=OCC&CID=af:obank:sv","brand":"ANZ","description":"Savings account where can earn bonus interest for saving regularly","effectiveFrom":"2019-08-20T14:10:00Z","isTailored":false,"lastUpdated":"2019-08-21T07:07:11.317682Z","name":"ANZ Progress Saver","productCategory":"TRANS_AND_SAVINGS_ACCOUNTS","productId":"555d22be-d238-69b3-6e42-8435ece0edb9"},{"additionalInformation":{"eligibilityUri":"https://www.anz.com.au/personal/bank-accounts/savings-accounts/premium-cash-management/?CID=af:obank:sv","feesAndPricingUri":"https://www.anz.com.au/personal/bank-accounts/savings-accounts/premium-cash-management/?CID=af:obank:sv","overviewUri":"https://www.anz.com.au/personal/bank-accounts/savings-accounts/premium-cash-management/?CID=af:obank:sv","termsUri":"http://www.anz.com/auxiliary/rates-fees-terms/fees-terms-conditions/?CID=af:obank:sv#FTPDS"},"applicationUri":"https://applyonline.anz.com/dsr-dep/deposits/apply?apptype=PC&sourcecode_1=OCN&CID=af:obank:sv#!start","brand":"ANZ","description":"An interest bearing product that offers flexible transactional capabilities","effectiveFrom":"2019-08-20T14:10:00Z","isTailored":false,"lastUpdated":"2019-08-21T07:07:08.058778Z","name":"ANZ Premium Cash Management Account","productCategory":"TRANS_AND_SAVINGS_ACCOUNTS","productId":"c5db9c27-c66c-4cff-b4f6-683e40b1ee8f"},{"additionalInformation":{"eligibilityUri":"https://www.anz.com.au/personal/bank-accounts/everyday-accounts/pensioner-advantage/?CID=af:obank:tv","feesAndPricingUri":"https://www.anz.com.au/personal/bank-accounts/everyday-accounts/pensioner-advantage/?CID=af:obank:tv","overviewUri":"https://www.anz.com.au/personal/bank-accounts/everyday-accounts/pensioner-advantage/?CID=af:obank:tv","termsUri":"http://www.anz.com/auxiliary/rates-fees-terms/fees-terms-conditions/?&CID=af:obank:tv#FTPDS"},"brand":"ANZ","description":"Basic account for recipients of eligible Centrelink or Veterans' Affairs pension or allowance","effectiveFrom":"2019-08-20T14:10:00Z","isTailored":false,"lastUpdated":"2019-08-21T07:07:05.044963Z","name":"ANZ Pensioner Advantage Account","productCategory":"TRANS_AND_SAVINGS_ACCOUNTS","productId":"1246b009-095a-fed6-a84e-6b7997d7abc2"},{"additionalInformation":{"eligibilityUri":"https://www.anz.com.au/personal/bank-accounts/savings-accounts/online-saver/?CID=af:obank:sv","feesAndPricingUri":"https://www.anz.com.au/personal/bank-accounts/savings-accounts/online-saver/?CID=af:obank:sv","overviewUri":"https://www.anz.com.au/personal/bank-accounts/savings-accounts/online-saver/?CID=af:obank:sv","termsUri":"http://www.anz.com/auxiliary/rates-fees-terms/fees-terms-conditions/?CID=af:obank:sv#FTPDS"},"applicationUri":"https://applyonline.anz.com/dsr-dep/deposits/apply?apptype=OS&sourcecode_1=OCE&CID=af:obank:sv","brand":"ANZ","description":"An online savings account","effectiveFrom":"2019-08-20T14:10:00Z","isTailored":false,"lastUpdated":"2019-08-21T07:07:02.226897Z","name":"ANZ Online Saver","productCategory":"TRANS_AND_SAVINGS_ACCOUNTS","productId":"f0007260-eaa2-fa72-ee3b-31c3421a39ef"},{"additionalInformation":{"eligibilityUri":"https://www.anz.com.au/personal/bank-accounts/term-deposits/advance-notice/?CID=af:obank:tv","feesAndPricingUri":"https://www.anz.com.au/personal/bank-accounts/term-deposits/advance-notice/?CID=af:obank:tv","overviewUri":"https://www.anz.com.au/personal/bank-accounts/term-deposits/advance-notice/?CID=af:obank:tv","termsUri":"http://www.anz.com/auxiliary/rates-fees-terms/fees-terms-conditions/?&CID=af:obank:tv#FTPDS"},"applicationUri":"https://applyonline.anz.com/dsr-dep/deposits/apply?apptype=AN&sourcecode_1=QAA&CID=af:obank:sv","brand":"ANZ","description":"Enjoy the certainty of fixed returns over the investment term of your choice","effectiveFrom":"2019-08-20T14:10:00Z","isTailored":false,"lastUpdated":"2019-08-21T07:06:57.663199Z","name":"ANZ Advance Notice Term Deposit","productCategory":"TERM_DEPOSITS","productId":"58793bd7-4ccb-bcaf-4332-8eb93fc2a12a"},{"additionalInformation":{"eligibilityUri":"https://www.anz.com.au/personal/bank-accounts/everyday-accounts/access-basic/?CID=af:obank:tv","feesAndPricingUri":"https://www.anz.com.au/personal/bank-accounts/everyday-accounts/access-basic/?CID=af:obank:tv","overviewUri":"https://www.anz.com.au/personal/bank-accounts/everyday-accounts/access-basic/?CID=af:obank:tv","termsUri":"http://www.anz.com/auxiliary/rates-fees-terms/fees-terms-conditions/?CID=af:obank:tv#FTPDS"},"brand":"ANZ","description":"Offers affordable and convenient banking for Concession and Health Care card holders.","effectiveFrom":"2019-08-20T14:10:00Z","isTailored":false,"lastUpdated":"2019-08-21T07:06:54.208066Z","name":"ANZ Access Basic","productCategory":"TRANS_AND_SAVINGS_ACCOUNTS","productId":"d92f9b65-581a-02a4-ac28-19f1169b0137"},{"additionalInformation":{"eligibilityUri":"https://www.anz.com.au/personal/bank-accounts/everyday-accounts/access-advantage/?CID=af:obank:tv","feesAndPricingUri":"https://www.anz.com.au/content/dam/anzcomau/documents/pdf/personal-account-fees-charges.pdf?CID=af:obank:tv","overviewUri":"https://www.anz.com.au/personal/bank-accounts/everyday-accounts/access-advantage/?CID=af:obank:tv","termsUri":"http://www.anz.com/auxiliary/rates-fees-terms/fees-terms-conditions/?CID=af:obank:tv#FTPDS"},"applicationUri":"https://applyonline.anz.com/dsr-dep/deposits/apply?apptype=AA&sourcecode_1=QMV&CID=af:obank:tv","brand":"ANZ","description":"An everyday account with easy and secure banking, unlimited ANZ Transactions and Visa Debit card","effectiveFrom":"2019-08-20T14:10:00Z","isTailored":false,"lastUpdated":"2019-08-21T07:06:51.188456Z","name":"ANZ Access Advantage","productCategory":"TRANS_AND_SAVINGS_ACCOUNTS","productId":"63a061f5-8c80-e021-a9e3-dddff7f8f178"},{"additionalInformation":{"eligibilityUri":"https://www.anz.com.au/personal/credit-cards/rewards/travel-adventures/?CID=af:obank:cc#eligibility","feesAndPricingUri":"https://www.anz.com.au/personal/credit-cards/rewards/travel-adventures/?CID=af:obank:cc#rates","overviewUri":"https://www.anz.com.au/personal/credit-cards/rewards/travel-adventures?CID=af:obank:cc","termsUri":"http://www.anz.com/auxiliary/rates-fees-terms/fees-terms-conditions/?CID=af:obank:cc"},"applicationUri":"https://creditcardapp.anz.com/#/?apptype=RTA&sourcecode_1=IWSV&CID=af:obank:cc","brand":"ANZ","description":"Get ready for your next adventure with the credit card that gets you travelling","effectiveFrom":"2019-08-20T14:10:00Z","isTailored":false,"lastUpdated":"2019-08-21T07:06:48.180575Z","name":"ANZ Rewards Travel Adventures","productCategory":"CRED_AND_CHRG_CARDS","productId":"a2276ca6-5934-38c1-0164-fd863d71b72b"},{"additionalInformation":{"eligibilityUri":"https://www.anz.com.au/personal/credit-cards/rewards/platinum/?CID=af:obank:cc#eligibility","feesAndPricingUri":"https://www.anz.com.au/personal/credit-cards/rewards/platinum/?CID=af:obank:cc#rates","overviewUri":"https://www.anz.com.au/personal/credit-cards/rewards/platinum?CID=af:obank:cc","termsUri":"http://www.anz.com/auxiliary/rates-fees-terms/fees-terms-conditions/?CID=af:obank:cc"},"applicationUri":"https://creditcardapp.anz.com/#/?sourcecode_1=IXLH&apptype=RVG&CID=af:obank:cc","brand":"ANZ","description":"Be rewarded for your everyday purchases and access a flexible Rewards program with complimentary insurances (conditions and exclusions apply) and Personal Concierge","effectiveFrom":"2019-08-20T14:10:00Z","isTailored":false,"lastUpdated":"2019-08-21T07:06:45.185104Z","name":"ANZ Rewards Platinum","productCategory":"CRED_AND_CHRG_CARDS","productId":"83ec0087-a974-ea3c-b3dd-cd7be8fe72c3"},{"additionalInformation":{"eligibilityUri":"https://www.anz.com.au/personal/credit-cards/rewards/black/?CID=af:obank:cc#eligibility","feesAndPricingUri":"https://www.anz.com.au/personal/credit-cards/rewards/black/?CID=af:obank:cc#rates","overviewUri":"https://www.anz.com.au/personal/credit-cards/rewards/black?CID=af:obank:cc","termsUri":"http://www.anz.com/auxiliary/rates-fees-terms/fees-terms-conditions/?CID=af:obank:cc"},"applicationUri":"https://creditcardapp.anz.com/#/?sourcecode_1=IXKR&apptype=RB&CID=af:obank:cc","brand":"ANZ","description":"Our highest Reward Points earning potential","effectiveFrom":"2019-08-20T14:10:00Z","isTailored":false,"lastUpdated":"2019-08-21T07:06:42.310687Z","name":"ANZ Rewards Black","productCategory":"CRED_AND_CHRG_CARDS","productId":"bb285067-ab85-823c-5a76-70e4f5ca5012"},{"additionalInformation":{"eligibilityUri":"https://www.anz.com.au/personal/credit-cards/rewards/card/?CID=af:obank:cc#eligibility","feesAndPricingUri":"https://www.anz.com.au/personal/credit-cards/rewards/card/?CID=af:obank:cc#rates","overviewUri":"https://www.anz.com.au/personal/credit-cards/rewards/card?CID=af:obank:cc","termsUri":"http://www.anz.com/auxiliary/rates-fees-terms/fees-terms-conditions/?CID=af:obank:cc"},"applicationUri":"https://creditcardapp.anz.com/#/?sourcecode_1=IXJL&apptype=RV&CID=af:obank:cc","brand":"ANZ","description":"Be rewarded for your everyday purchases and have the flexibility to redeem points for rewards ranging from gift cards to cashback and travel","effectiveFrom":"2019-08-20T14:10:00Z","isTailored":false,"lastUpdated":"2019-08-21T07:06:39.402230Z","name":"ANZ Rewards","productCategory":"CRED_AND_CHRG_CARDS","productId":"e0a39b38-c4d3-1bb9-517e-1f47d096d9de"},{"additionalInformation":{"eligibilityUri":"https://www.anz.com.au/personal/credit-cards/low-annual-fee/platinum/?CID=af:obank:cc#eligibility","feesAndPricingUri":"https://www.anz.com.au/personal/credit-cards/low-annual-fee/platinum/?CID=af:obank:cc#rates","overviewUri":"https://www.anz.com.au/personal/credit-cards/low-annual-fee/platinum?CID=af:obank:cc","termsUri":"http://www.anz.com/auxiliary/rates-fees-terms/fees-terms-conditions/?CID=af:obank:cc"},"applicationUri":"https://creditcardapp.anz.com/#/?sourcecode_1=IWZE&apptype=GV&CID=af:obank:cc","brand":"ANZ","description":"A simple everyday credit card with $0 annual fee in the first year and complimentary insurances (conditions and exclusions apply)","effectiveFrom":"2019-08-20T14:10:00Z","isTailored":false,"lastUpdated":"2019-08-21T07:06:36.613949Z","name":"ANZ Platinum","productCategory":"CRED_AND_CHRG_CARDS","productId":"32d80c15-4237-0313-f803-c9d62572a03c"},{"additionalInformation":{"eligibilityUri":"https://www.anz.com.au/personal/credit-cards/low-interest-rate/low-rate-card/?CID=af:obank:cc#eligibility","feesAndPricingUri":"https://www.anz.com.au/personal/credit-cards/low-interest-rate/low-rate-card/?CID=af:obank:cc#rates","overviewUri":"https://www.anz.com.au/personal/credit-cards/low-interest-rate/low-rate-card?CID=af:obank:cc","termsUri":"http://www.anz.com/auxiliary/rates-fees-terms/fees-terms-conditions/?CID=af:obank:cc"},"applicationUri":"https://creditcardapp.anz.com/#/?apptype=LRV&sourcecode_1=IXCO&CID=af:obank:cc","brand":"ANZ","description":"A credit card with a low ongoing interest rate for your everyday purchases","effectiveFrom":"2019-08-20T14:10:00Z","isTailored":false,"lastUpdated":"2019-08-21T07:06:33.506653Z","name":"ANZ Low Rate","productCategory":"CRED_AND_CHRG_CARDS","productId":"cc73cf44-c4ae-3474-31a9-04d4483c4fa0"},{"additionalInformation":{"eligibilityUri":"https://www.anz.com.au/personal/credit-cards/frequent-flyer/platinum/?CID=af:obank:cc#eligibility","feesAndPricingUri":"https://www.anz.com.au/personal/credit-cards/frequent-flyer/platinum/?CID=af:obank:cc#rates","overviewUri":"https://www.anz.com.au/personal/credit-cards/frequent-flyer/platinum?CID=af:obank:cc","termsUri":"http://www.anz.com/auxiliary/rates-fees-terms/fees-terms-conditions/?CID=af:obank:cc"},"applicationUri":"https://creditcardapp.anz.com/#/?sourcecode_1=IXKA&apptype=FFP&CID=af:obank:cc","brand":"ANZ","description":"Earn Qantas Points on everyday purchases with complimentary insurances (conditions and exclusions apply) and Personal Concierge","effectiveFrom":"2019-08-20T14:10:00Z","isTailored":false,"lastUpdated":"2019-08-21T07:06:30.585407Z","name":"ANZ Frequent Flyer Platinum","productCategory":"CRED_AND_CHRG_CARDS","productId":"3d6dff4a-feb5-8562-3b8e-e1ce2974cef5"},{"additionalInformation":{"eligibilityUri":"https://www.anz.com.au/personal/credit-cards/frequent-flyer/black/?CID=af:obank:cc#eligibility","feesAndPricingUri":"https://www.anz.com.au/personal/credit-cards/frequent-flyer/black/?CID=af:obank:cc#rates","overviewUri":"https://www.anz.com.au/personal/credit-cards/frequent-flyer/black?CID=af:obank:cc","termsUri":"http://www.anz.com/auxiliary/rates-fees-terms/fees-terms-conditions/?CID=af:obank:cc"},"applicationUri":"https://creditcardapp.anz.com/#/?sourcecode_1=IXMD&apptype=FFB&CID=af:obank:cc","brand":"ANZ","description":"Our most rewarding Qantas experience","effectiveFrom":"2019-08-20T14:10:00Z","isTailored":false,"lastUpdated":"2019-08-21T07:06:27.736944Z","name":"ANZ Frequent Flyer Black","productCategory":"CRED_AND_CHRG_CARDS","productId":"71489d22-c826-bb94-9810-e910536e386f"},{"additionalInformation":{"eligibilityUri":"https://www.anz.com.au/personal/credit-cards/frequent-flyer/card/?CID=af:obank:cc#eligibility","feesAndPricingUri":"https://www.anz.com.au/personal/credit-cards/frequent-flyer/card/?CID=af:obank:cc#rates","overviewUri":"https://www.anz.com.au/personal/credit-cards/frequent-flyer/card?CID=af:obank:cc","termsUri":"http://www.anz.com/auxiliary/rates-fees-terms/fees-terms-conditions/?CID=af:obank:cc"},"applicationUri":"https://creditcardapp.anz.com/#/?sourcecode_1=IXMX&apptype=FF&CID=af:obank:cc","brand":"ANZ","description":"Earn Qantas Points on your everyday purchases","effectiveFrom":"2019-08-20T14:10:00Z","isTailored":false,"lastUpdated":"2019-08-21T07:06:25.015332Z","name":"ANZ Frequent Flyer","productCategory":"CRED_AND_CHRG_CARDS","productId":"433b2cc7-c085-d880-3d1a-49841e92c976"},{"additionalInformation":{"eligibilityUri":"https://www.anz.com.au/personal/credit-cards/low-annual-fee/first/?CID=af:obank:tv#eligibility","feesAndPricingUri":"https://www.anz.com.au/personal/credit-cards/low-annual-fee/first/?CID=af:obank:tv#rates","overviewUri":"https://www.anz.com.au/personal/credit-cards/low-annual-fee/first?CID=af:obank:tv","termsUri":"http://www.anz.com/auxiliary/rates-fees-terms/fees-terms-conditions/?CID=af:obank:tv"},"applicationUri":"https://creditcardapp.anz.com/#/?sourcecode_1=IWZN&apptype=FV&CID=af:obank:tv","brand":"ANZ","description":"A simple everyday credit card with a low ongoing annual fee","effectiveFrom":"2019-08-20T14:10:00Z","isTailored":false,"lastUpdated":"2019-08-21T07:06:22.333718Z","name":"ANZ First","productCategory":"CRED_AND_CHRG_CARDS","productId":"96a6550f-6b61-cf38-a97d-c41c816f760d"},{"additionalInformation":{"eligibilityUri":"http://www.anz.com/corporate/products-services/financing/commercial-cards/corporate-purchasing-cards/?CID=af:obank:in","feesAndPricingUri":"http://www.anz.com/corporate/products-services/financing/commercial-cards/corporate-purchasing-cards/?CID=af:obank:in","overviewUri":"http://www.anz.com/corporate/products-services/financing/commercial-cards/corporate-purchasing-cards/?CID=af:obank:in","termsUri":"https://www.anz.com.au/business/help-support/terms-conditions/?section=SBS&CID=af:obank:in"},"brand":"ANZ","description":"Credit cards to manage business purchases and expenses","effectiveFrom":"2019-08-20T14:10:00Z","isTailored":true,"lastUpdated":"2019-08-21T07:06:19.660927Z","name":"ANZ Visa Purchasing & Corporate Cards","productCategory":"CRED_AND_CHRG_CARDS","productId":"b933259f-d57a-feef-cf41-0af7b38b8e74"},{"additionalInformation":{"eligibilityUri":"https://www.anz.com.au/business/products/credit-cards/rewards-options/?CID=af:obank:cm#eligibility","feesAndPricingUri":"https://www.anz.com.au/business/products/credit-cards/rewards-options/?CID=af:obank:cm#rates","overviewUri":"https://www.anz.com.au/business/products/credit-cards/rewards-options/?CID=af:obank:cm","termsUri":"https://www.anz.com.au/business/help-support/terms-conditions/?section=SBS&CID=af:obank:cm"},"applicationUri":"https://apply2.anz.com/au/smallbusiness/index.jsp?apptype=BOO&sourcecode_1=OAAA&CID=af:obank:cm","brand":"ANZ","description":"A credit card facility for businesses where you can earn rewards on eligible transactions","effectiveFrom":"2019-08-20T14:10:00Z","isTailored":false,"lastUpdated":"2019-08-21T07:06:17.219411Z","name":"ANZ Business Rewards Options","productCategory":"CRED_AND_CHRG_CARDS","productId":"b61d5c36-996e-6a2c-8e4d-41e08193df08"},{"additionalInformation":{"eligibilityUri":"https://www.anz.com.au/business/products/credit-cards/low-rate/?CID=af:obank:cm#eligibility","feesAndPricingUri":"https://www.anz.com.au/business/products/credit-cards/low-rate/?CID=af:obank:cm#rates","overviewUri":"https://www.anz.com.au/business/products/credit-cards/low-rate/?CID=af:obank:cm","termsUri":"https://www.anz.com.au/business/help-support/terms-conditions/?section=SBS&CID=af:obank:cm"},"applicationUri":"https://apply1.anz.com/au/smallbusiness/index.jsp?apptype=BOL&sourcecode_1=OAAB&CID=af:obank:cm","brand":"ANZ","description":"A credit card facility for businesses with a low interest ongoing interest rate","effectiveFrom":"2019-08-20T14:10:00Z","isTailored":false,"lastUpdated":"2019-08-21T07:06:14.914848Z","name":"ANZ Business Low Rate","productCategory":"CRED_AND_CHRG_CARDS","productId":"e36042da-fa74-d28b-30b1-0b41851e098b"},{"additionalInformation":{"eligibilityUri":"https://www.anz.com.au/business/products/credit-cards/business-black/?CID=af:obank:cm#eligibility","feesAndPricingUri":"https://www.anz.com.au/business/products/credit-cards/business-black/?CID=af:obank:cm#rates","overviewUri":"https://www.anz.com.au/business/products/credit-cards/business-black/?CID=af:obank:cm","termsUri":"https://www.anz.com.au/business/help-support/terms-conditions/?section=SBS&CID=af:obank:cm"},"applicationUri":"https://apply2.anz.com/au/smallbusiness/index.jsp?apptype=BOB&sourcecode_1=OAAS&CID=af:obank:cm#/apptype/BOB","brand":"ANZ","description":"A credit card facility for businesses where you can earn rewards on eligible transactions and receive overseas travel and medical insurance","effectiveFrom":"2019-08-20T14:10:00Z","isTailored":false,"lastUpdated":"2019-08-21T07:06:12.508074Z","name":"ANZ Business Black","productCategory":"CRED_AND_CHRG_CARDS","productId":"1067d80c-9316-b9c6-4442-2f84337a1195"},{"additionalInformation":{"eligibilityUri":"https://www.anz.com.au/business/products/credit-cards/interest-free/?CID=af:obank:cm#eligibility","feesAndPricingUri":"https://www.anz.com.au/business/products/credit-cards/interest-free/?CID=af:obank:cm#rates","overviewUri":"https://www.anz.com.au/business/products/credit-cards/interest-free/?CID=af:obank:cm","termsUri":"https://www.anz.com.au/business/help-support/terms-conditions/?section=SBS&CID=af:obank:cm"},"applicationUri":"https://apply1.anz.com/au/smallbusiness/index.jsp?apptype=BOI&sourcecode_1=OAAC&CID=af:obank:cm","brand":"ANZ","description":"A credit card facility for businesses with up to 55 days interest free on purchases (if you pay your closing balance in full by the due date each month)","effectiveFrom":"2019-08-20T14:10:00Z","isTailored":false,"lastUpdated":"2019-08-21T07:06:09.989165Z","name":"ANZ Business 55 Interest Free Days","productCategory":"CRED_AND_CHRG_CARDS","productId":"77ac7ff7-ee0b-ac36-7796-b21ca3f5eae2"},{"additionalInformation":{"eligibilityUri":"https://www.anz.com.au/business/products/accounts/savings-accounts/business-term-deposit/?CID=af:obank:bb","feesAndPricingUri":"https://www.anz.com.au/business/products/accounts/savings-accounts/business-term-deposit/?CID=af:obank:bb","overviewUri":"https://www.anz.com.au/business/products/accounts/savings-accounts/business-term-deposit/?CID=af:obank:bb","termsUri":"https://www.anz.com.au/business/help-support/terms-conditions/?section=SBS&CID=af:obank:bb"},"brand":"ANZ","description":"Business term deposit with flexible terms requiring 31 days notice of withdrawal (fees apply)","effectiveFrom":"2019-08-20T14:10:00Z","isTailored":false,"lastUpdated":"2019-08-21T07:06:05.795323Z","name":"ANZ Business Notice Term Deposit","productCategory":"TERM_DEPOSITS","productId":"b18169f3-ab95-93fb-80b4-1232170dea15"},{"additionalInformation":{"eligibilityUri":"https://www.anz.com.au/business/products/accounts/transaction-accounts/business-extra/?CID=af:obank:bb","feesAndPricingUri":"https://www.anz.com.au/business/products/accounts/transaction-accounts/business-extra/?CID=af:obank:bb","overviewUri":"https://www.anz.com.au/business/products/accounts/transaction-accounts/business-extra/?CID=af:obank:bb","termsUri":"https://www.anz.com.au/business/help-support/terms-conditions/?section=SBS&CID=af:obank:bb"},"applicationUri":"https://onlineapps.anz.com/sbola/?#/?apptype=BEX&sourcecode_1=ANE&CID=af:obank:sv","brand":"ANZ","description":"An everyday business account offering greater flexibility and control through ANZ Internet Banking for Business","effectiveFrom":"2019-08-20T14:10:00Z","isTailored":false,"lastUpdated":"2019-08-21T07:06:03.086598Z","name":"ANZ Business Extra","productCategory":"TRANS_AND_SAVINGS_ACCOUNTS","productId":"8bb17c9e-ccc0-8ad4-0f42-e181a74ae992"}]},"links":{"first":"https://api-np.anz/cds-au/v1/banking/products?page=1&page-size=25","last":"https://api-np.anz/cds-au/v1/banking/products?page=2&page-size=25","next":"https://api-np.anz/cds-au/v1/banking/products?page=2&page-size=25","self":"https://api-np.anz/cds-au/v1/banking/products"},"meta":{"totalPages":2,"totalRecords":28}}
